[gd_scene load_steps=3 format=2]

[ext_resource path="res://sprites/SpaceShooterRedux/PNG/Power-ups/powerupRed_bolt.png" type="Texture" id=1]

[sub_resource type="GDScript" id=1]
script/source = "extends Area2D

# Declare member variables here. Examples:
# var a = 2
# var b = \"text\"

# Called when the node enters the scene tree for the first time.
func _ready():
	pass # Replace with function body.

# Called every frame. 'delta' is the elapsed time since the previous frame.
#func _process(delta):
#	pass


func _on_power_up_rocketlife_area_entered(airplane):
	if airplane.is_in_group(game.AIRPLANE_GROUP):
		airplane.set_rocket_life(1)
		queue_free()
"

[node name="power_up_rocketlife" type="Area2D"]
script = SubResource( 1 )

[node name="powerup" type="Sprite" parent="."]
texture = ExtResource( 1 )

[node name="CollisionPolygon2D" type="CollisionPolygon2D" parent="."]
polygon = PoolVector2Array( -13.4984, -11.6164, 12.0607, -11.6164, 10.7666, 12.6486, -13.8219, 12.6486 )
[connection signal="area_entered" from="." to="." method="_on_power_up_rocketlife_area_entered"]
